…
Aggregate council districts that is affected by crime on the day --&gt; I save it as "Arrest\_Daily"

``` r
Arrest_Daily <- dat1 %>%
  group_by(DATE) %>%
  summarize(CASES = n(), NUM_COUNCIL = n_distinct(COUNCIL_DISTRICT)) %>%
  arrange(DATE) 
```

    ## # A tibble: 212 × 3
    ##          DATE CASES NUM_COUNCIL
    ##         <chr> <int>       <int>
    ## 1  2014-11-16     3           1
    ## 2  2015-05-29     1           1
    ## 3  2015-11-04     2           1
    ## 4  2016-02-12     1           1
    ## 5  2016-02-17     1           1
    ## 6  2016-03-03     1           1
    ## 7  2016-04-04     1           1
    ## 8  2016-04-08     1           1
    ## 9  2016-04-10     1           1
    ## 10 2016-04-12     2           1
    ## # ... with 202 more rows
…
